…
```r
sharks %>% 
  count(county, sort=T)
```

```
## # A tibble: 21 × 2
##    county              n
##    <chr>           <int>
##  1 San Diego          23
##  2 Santa Barbara      19
##  3 Humboldt           18
##  4 San Mateo          18
##  5 Marin              16
##  6 Monterey           15
##  7 Santa Cruz         15
##  8 Sonoma             15
##  9 San Luis Obispo    14
## 10 Los Angeles         9
## # ℹ 11 more rows
```
…
This table below shows the type of injuries by county. 

```r
sharks %>% 
  count(county, injury)
```

```
## # A tibble: 57 × 3
##    county              injury     n
##    <chr>               <chr>  <int>
##  1 Del Norte           minor      2
##  2 Del Norte           none       1
##  3 Humboldt            major      7
##  4 Humboldt            minor      2
##  5 Humboldt            none       9
##  6 Island - Catalina   minor      1
##  7 Island - Catalina   none       3
##  8 Island - Farallones major      7
##  9 Island - San Miguel fatal      1
## 10 Island - San Miguel major      2
## # ℹ 47 more rows
```
…
