…
## `superhero_info`
3. Let's say we are only interested in the variables name, alignment, and "race". How would you isolate these variables from `superhero_info`?


```r
superhero_info %>% 
  select(name,Alignment,Race)
```

```
## # A tibble: 734 × 3
##    name          Alignment Race             
##    <chr>         <chr>     <chr>            
##  1 A-Bomb        good      Human            
##  2 Abe Sapien    good      Icthyo Sapien    
##  3 Abin Sur      good      Ungaran          
##  4 Abomination   bad       Human / Radiation
##  5 Abraxas       bad       Cosmic Entity    
##  6 Absorbing Man bad       Human            
##  7 Adam Monroe   good      <NA>             
##  8 Adam Strange  good      Human            
##  9 Agent 13      good      <NA>             
## 10 Agent Bob     good      Human            
## # ℹ 724 more rows
```
…
12. Who has the highest height to weight ratio?  


```r
update_superhero_table %>% 
  arrange(desc(height_weight_ratio))
```

```
## # A tibble: 734 × 11
##    name      Gender `Eye color` Race  `Hair color` Height Publisher `Skin color`
##    <chr>     <chr>  <chr>       <chr> <chr>         <dbl> <chr>     <chr>       
##  1 Groot     Male   yellow      Flor… <NA>            701 Marvel C… <NA>        
##  2 Galactus  Male   black       Cosm… Black           876 Marvel C… <NA>        
##  3 Fin Fang… Male   red         Kaka… No Hair         975 Marvel C… green       
##  4 Longshot  Male   blue        Human Blond           188 Marvel C… <NA>        
##  5 Jack-Jack Male   blue        Human Brown            71 Dark Hor… <NA>        
##  6 Rocket R… Male   brown       Anim… Brown           122 Marvel C… <NA>        
##  7 Dash      Male   blue        Human Blond           122 Dark Hor… <NA>        
##  8 Howard t… Male   brown       <NA>  Yellow           79 Marvel C… <NA>        
##  9 Swarm     Male   yellow      Muta… No Hair         196 Marvel C… yellow      
## 10 Yoda      Male   brown       Yoda… White            66 George L… green       
## # ℹ 724 more rows
## # ℹ 3 more variables: Alignment <chr>, Weight <dbl>, height_weight_ratio <dbl>
```
…
